{
  "project_info": {
    "project_number": "661444925305",
    "firebase_url": "https://app-0d.firebaseio.com",
    "project_id": "app-0d",
    "storage_bucket": "app-0d.appspot.com"
  },
  "client": [
    {
      "client_info": {
        "mobilesdk_app_id": "1:661444925305:android:e617f290859c63ea0f41a8",
        "android_client_info": {
          "package_name": "prasetyo.dendy.app0d"
        }
      },
      "oauth_client": [
        {
          "client_id": "661444925305-srlinh2d0qoi20ren2a0ajcfv5o8v6u9.apps.googleusercontent.com",
          "client_type": 3
        }
      ],
      "api_key": [
        {
          "current_key": "AIzaSyBdWNEHfj6h5cAcvD6Leaxa0fsmh3RQ82k"
        }
      ],
      "services": {
        "appinvite_service": {
          "other_platform_oauth_client": [
            {
              "client_id": "661444925305-srlinh2d0qoi20ren2a0ajcfv5o8v6u9.apps.googleusercontent.com",
              "client_type": 3
            }
          ]
        }
      }
    }
  ],
  "configuration_version": "1"
}